//triangle number

#include <stdio.h>

int triangle(int a);
int main() {
    int a;
    
    printf("Enter Your Number :");
    scanf("%d",&a);
    
    triangle(a);
}
int triangle(int a){
    
    if(a != 0){
        triangle(a-1);
    }
    
    for(int b =a;b>0;b--){
        printf("%d",b);
    }
    printf("\n");
    }
